(module PinSocket_2x04_P1.00mm_Vertical_SMD (layer F.Cu) (tedit 5A19A41C)
  (descr "surface-mounted straight socket strip, 2x04, 1.00mm pitch, double cols (https://gct.co/files/drawings/bc085.pdf), script generated")
  (tags "Surface mounted socket strip SMD 2x04 1.00mm double row")
  (attr smd)
  (fp_text reference REF** (at 0 -3.75) (layer F.SilkS)
    (effects (font (size 1 1) (thickness 0.15)))
  )
  (fp_text value PinSocket_2x04_P1.00mm_Vertical_SMD (at 0 3.75) (layer F.Fab)
    (effects (font (size 1 1) (thickness 0.15)))
  )
  (fp_text user %R (at 0 0 90) (layer F.Fab)
    (effects (font (size 1 1) (thickness 0.15)))
  )
  (fp_line (start -1.31 -2.31) (end 1.31 -2.31) (layer F.SilkS) (width 0.12))
  (fp_line (start 1.31 -2.31) (end 1.31 -2.01) (layer F.SilkS) (width 0.12))
  (fp_line (start 1.31 2.01) (end 1.31 2.31) (layer F.SilkS) (width 0.12))
  (fp_line (start -1.31 2.31) (end 1.31 2.31) (layer F.SilkS) (width 0.12))
  (fp_line (start -1.31 -2.31) (end -1.31 -2.01) (layer F.SilkS) (width 0.12))
  (fp_line (start -1.31 2.01) (end -1.31 2.31) (layer F.SilkS) (width 0.12))
  (fp_line (start 1.31 -2.01) (end 2.39 -2.01) (layer F.SilkS) (width 0.12))
  (fp_line (start -1.25 -2.25) (end 0.625 -2.25) (layer F.Fab) (width 0.1))
  (fp_line (start 0.625 -2.25) (end 1.25 -1.625) (layer F.Fab) (width 0.1))
  (fp_line (start 1.25 -1.625) (end 1.25 2.25) (layer F.Fab) (width 0.1))
  (fp_line (start 1.25 2.25) (end -1.25 2.25) (layer F.Fab) (width 0.1))
  (fp_line (start -1.25 2.25) (end -1.25 -2.25) (layer F.Fab) (width 0.1))
  (fp_line (start -1.95 -1.65) (end -1.25 -1.65) (layer F.Fab) (width 0.1))
  (fp_line (start -1.25 -1.35) (end -1.95 -1.35) (layer F.Fab) (width 0.1))
  (fp_line (start -1.95 -1.35) (end -1.95 -1.65) (layer F.Fab) (width 0.1))
  (fp_line (start 1.25 -1.65) (end 1.95 -1.65) (layer F.Fab) (width 0.1))
  (fp_line (start 1.95 -1.65) (end 1.95 -1.35) (layer F.Fab) (width 0.1))
  (fp_line (start 1.95 -1.35) (end 1.25 -1.35) (layer F.Fab) (width 0.1))
  (fp_line (start -1.95 -0.65) (end -1.25 -0.65) (layer F.Fab) (width 0.1))
  (fp_line (start -1.25 -0.35) (end -1.95 -0.35) (layer F.Fab) (width 0.1))
  (fp_line (start -1.95 -0.35) (end -1.95 -0.65) (layer F.Fab) (width 0.1))
  (fp_line (start 1.25 -0.65) (end 1.95 -0.65) (layer F.Fab) (width 0.1))
  (fp_line (start 1.95 -0.65) (end 1.95 -0.35) (layer F.Fab) (width 0.1))
  (fp_line (start 1.95 -0.35) (end 1.25 -0.35) (layer F.Fab) (width 0.1))
  (fp_line (start -1.95 0.35) (end -1.25 0.35) (layer F.Fab) (width 0.1))
  (fp_line (start -1.25 0.65) (end -1.95 0.65) (layer F.Fab) (width 0.1))
  (fp_line (start -1.95 0.65) (end -1.95 0.35) (layer F.Fab) (width 0.1))
  (fp_line (start 1.25 0.35) (end 1.95 0.35) (layer F.Fab) (width 0.1))
  (fp_line (start 1.95 0.35) (end 1.95 0.65) (layer F.Fab) (width 0.1))
  (fp_line (start 1.95 0.65) (end 1.25 0.65) (layer F.Fab) (width 0.1))
  (fp_line (start -1.95 1.35) (end -1.25 1.35) (layer F.Fab) (width 0.1))
  (fp_line (start -1.25 1.65) (end -1.95 1.65) (layer F.Fab) (width 0.1))
  (fp_line (start -1.95 1.65) (end -1.95 1.35) (layer F.Fab) (width 0.1))
  (fp_line (start 1.25 1.35) (end 1.95 1.35) (layer F.Fab) (width 0.1))
  (fp_line (start 1.95 1.35) (end 1.95 1.65) (layer F.Fab) (width 0.1))
  (fp_line (start 1.95 1.65) (end 1.25 1.65) (layer F.Fab) (width 0.1))
  (fp_line (start -2.95 -2.75) (end 2.95 -2.75) (layer F.CrtYd) (width 0.05))
  (fp_line (start 2.95 -2.75) (end 2.95 2.75) (layer F.CrtYd) (width 0.05))
  (fp_line (start 2.95 2.75) (end -2.95 2.75) (layer F.CrtYd) (width 0.05))
  (fp_line (start -2.95 2.75) (end -2.95 -2.75) (layer F.CrtYd) (width 0.05))
  (pad 8 smd rect (at -1.525 1.5) (size 1.85 0.5) (layers F.Cu F.Paste F.Mask))
  (pad 7 smd rect (at 1.525 1.5) (size 1.85 0.5) (layers F.Cu F.Paste F.Mask))
  (pad 6 smd rect (at -1.525 0.5) (size 1.85 0.5) (layers F.Cu F.Paste F.Mask))
  (pad 5 smd rect (at 1.525 0.5) (size 1.85 0.5) (layers F.Cu F.Paste F.Mask))
  (pad 4 smd rect (at -1.525 -0.5) (size 1.85 0.5) (layers F.Cu F.Paste F.Mask))
  (pad 3 smd rect (at 1.525 -0.5) (size 1.85 0.5) (layers F.Cu F.Paste F.Mask))
  (pad 2 smd rect (at -1.525 -1.5) (size 1.85 0.5) (layers F.Cu F.Paste F.Mask))
  (pad 1 smd rect (at 1.525 -1.5) (size 1.85 0.5) (layers F.Cu F.Paste F.Mask))
  (model ${KISYS3DMOD}/Connector_PinSocket_1.00mm.3dshapes/PinSocket_2x04_P1.00mm_Vertical_SMD.wrl
    (at (xyz 0 0 0))
    (scale (xyz 1 1 1))
    (rotate (xyz 0 0 0))
  )
)
