(module R_0201_0603Metric_Pad0.64x0.40mm_HandSolder (layer F.Cu) (tedit 5F6BB9E0)
  (descr "Resistor SMD 0201 (0603 Metric), square (rectangular) end terminal, IPC_7351 nominal with elongated pad for handsoldering. (Body size source: https://www.vishay.com/docs/20052/crcw0201e3.pdf), generated with kicad-footprint-generator")
  (tags "resistor handsolder")
  (attr smd)
  (fp_text reference REF** (at 0 -1.05) (layer F.SilkS)
    (effects (font (size 1 1) (thickness 0.15)))
  )
  (fp_text value R_0201_0603Metric_Pad0.64x0.40mm_HandSolder (at 0 1.05) (layer F.Fab)
    (effects (font (size 1 1) (thickness 0.15)))
  )
  (fp_text user %R (at 0 -0.68) (layer F.Fab)
    (effects (font (size 0.25 0.25) (thickness 0.04)))
  )
  (fp_line (start -0.3 0.15) (end -0.3 -0.15) (layer F.Fab) (width 0.1))
  (fp_line (start -0.3 -0.15) (end 0.3 -0.15) (layer F.Fab) (width 0.1))
  (fp_line (start 0.3 -0.15) (end 0.3 0.15) (layer F.Fab) (width 0.1))
  (fp_line (start 0.3 0.15) (end -0.3 0.15) (layer F.Fab) (width 0.1))
  (fp_line (start -0.88 0.35) (end -0.88 -0.35) (layer F.CrtYd) (width 0.05))
  (fp_line (start -0.88 -0.35) (end 0.88 -0.35) (layer F.CrtYd) (width 0.05))
  (fp_line (start 0.88 -0.35) (end 0.88 0.35) (layer F.CrtYd) (width 0.05))
  (fp_line (start 0.88 0.35) (end -0.88 0.35) (layer F.CrtYd) (width 0.05))
  (pad 2 smd roundrect (at 0.4075 0) (size 0.635 0.4) (layers F.Cu F.Mask) (roundrect_rratio 0.25))
  (pad 1 smd roundrect (at -0.4075 0) (size 0.635 0.4) (layers F.Cu F.Mask) (roundrect_rratio 0.25))
  (pad "" smd roundrect (at 0.4325 0) (size 0.458 0.36) (layers F.Paste) (roundrect_rratio 0.25))
  (pad "" smd roundrect (at -0.4325 0) (size 0.458 0.36) (layers F.Paste) (roundrect_rratio 0.25))
  (model ${KISYS3DMOD}/Resistor_SMD.3dshapes/R_0201_0603Metric.wrl
    (at (xyz 0 0 0))
    (scale (xyz 1 1 1))
    (rotate (xyz 0 0 0))
  )
)
