EESchema Schematic File Version 4
EELAYER 30 0
EELAYER END
$Descr A4 11693 8268
encoding utf-8
Sheet 1 1
Title "Proyecto TD2 - ARP1"
Date "2020-11-21"
Rev "A"
Comp "UTN"
Comment1 "Laurito - Simonavicius"
Comment2 ""
Comment3 ""
Comment4 ""
$EndDescr
$Comp
L arp1:C C3
U 1 1 5FBAD17B
P 750 2750
F 0 "C3" V 498 2750 50  0000 C CNN
F 1 "20pF" V 589 2750 50  0000 C CNN
F 2 "Capacitor_SMD:C_0603_1608Metric" H 788 2600 50  0001 C CNN
F 3 "~" H 750 2750 50  0001 C CNN
	1    750  2750
	0    1    1    0   
$EndComp
$Comp
L arp1:C C4
U 1 1 5FBAF82D
P 750 3150
F 0 "C4" V 1000 3150 50  0000 C CNN
F 1 "20pF" V 900 3150 50  0000 C CNN
F 2 "Capacitor_SMD:C_0603_1608Metric" H 788 3000 50  0001 C CNN
F 3 "~" H 750 3150 50  0001 C CNN
	1    750  3150
	0    1    1    0   
$EndComp
$Comp
L arp1:Crystal Y1
U 1 1 5FBB0920
P 1100 2950
F 0 "Y1" V 1054 3081 50  0000 L CNN
F 1 "8Mhz" V 1145 3081 50  0000 L CNN
F 2 "arp1:Crystal_HC49-4H_Vertical" H 1100 2950 50  0001 C CNN
F 3 "~" H 1100 2950 50  0001 C CNN
	1    1100 2950
	0    1    1    0   
$EndComp
Wire Wire Line
	1100 3100 1100 3150
$Comp
L arp1:R R2
U 1 1 5FBB56F1
P 1550 2950
F 0 "R2" H 1618 2996 50  0000 L CNN
F 1 "1M" H 1618 2905 50  0000 L CNN
F 2 "Resistor_SMD:R_0603_1608Metric" V 1590 2940 50  0001 C CNN
F 3 "~" H 1550 2950 50  0001 C CNN
	1    1550 2950
	1    0    0    -1  
$EndComp
Wire Wire Line
	1550 2800 1550 2750
Wire Wire Line
	1550 3100 1550 3150
Wire Wire Line
	1550 2750 1100 2750
Wire Wire Line
	1100 2750 1100 2800
Wire Wire Line
	1100 3150 1550 3150
Wire Wire Line
	1100 3150 900  3150
Connection ~ 1100 3150
Wire Wire Line
	1100 2750 900  2750
Connection ~ 1100 2750
Wire Wire Line
	600  2750 550  2750
Wire Wire Line
	550  2750 550  3150
Wire Wire Line
	550  3150 600  3150
$Comp
L arp1:Crystal Y2
U 1 1 5FBC0689
P 1150 2100
F 0 "Y2" V 1104 2231 50  0000 L CNN
F 1 "32.768K" V 1195 2231 50  0000 L CNN
F 2 "Crystal:Crystal_SMD_SeikoEpson_MC156-4Pin_7.1x2.5mm_HandSoldering" H 1150 2100 50  0001 C CNN
F 3 "~" H 1150 2100 50  0001 C CNN
	1    1150 2100
	0    1    1    0   
$EndComp
$Comp
L arp1:C C2
U 1 1 5FBC26C1
P 700 2350
F 0 "C2" V 448 2350 50  0000 C CNN
F 1 "20pF" V 539 2350 50  0000 C CNN
F 2 "Capacitor_SMD:C_0603_1608Metric" H 738 2200 50  0001 C CNN
F 3 "~" H 700 2350 50  0001 C CNN
	1    700  2350
	0    1    1    0   
$EndComp
Wire Wire Line
	850  1850 1150 1850
Wire Wire Line
	1150 1850 1150 1950
Wire Wire Line
	1150 2250 1150 2350
Wire Wire Line
	1150 2350 850  2350
Wire Wire Line
	550  1850 550  2350
$Comp
L Switch:SW_Push SW1
U 1 1 5FBC9430
P 650 4350
F 0 "SW1" V 696 4302 50  0000 R CNN
F 1 "SW_Push" V 605 4302 50  0000 R CNN
F 2 "Button_Switch_SMD:SW_SPST_TL3342" H 650 4550 50  0001 C CNN
F 3 "~" H 650 4550 50  0001 C CNN
	1    650  4350
	0    -1   -1   0   
$EndComp
$Comp
L arp1:C C5
U 1 1 5FBCAF81
P 1100 4250
F 0 "C5" H 1215 4296 50  0000 L CNN
F 1 "10uF" H 1215 4205 50  0000 L CNN
F 2 "Capacitor_SMD:C_0603_1608Metric" H 1138 4100 50  0001 C CNN
F 3 "https://ar.mouser.com/datasheet/2/212/KEM_C1002_X7R_SMD-1102033.pdf" H 1100 4250 50  0001 C CNN
F 4 "https://ar.mouser.com/ProductDetail/KEMET/C0805C106K4RACTU?qs=BpFtYU5tmpt2RYjYKYj3fg%3D%3D" H 1100 4250 50  0001 C CNN "Website"
	1    1100 4250
	1    0    0    -1  
$EndComp
Wire Wire Line
	1100 4000 1100 4050
Wire Wire Line
	1100 4050 650  4050
Wire Wire Line
	650  4050 650  4150
Connection ~ 1100 4050
Wire Wire Line
	1100 4050 1100 4100
Wire Wire Line
	1100 4400 1100 4600
Wire Wire Line
	1100 4600 650  4600
Wire Wire Line
	650  4600 650  4550
$Comp
L arp1:GND #PWR0101
U 1 1 5FBCF85E
P 1100 4600
F 0 "#PWR0101" H 1100 4350 50  0001 C CNN
F 1 "GND" H 1105 4427 50  0000 C CNN
F 2 "" H 1100 4600 50  0001 C CNN
F 3 "" H 1100 4600 50  0001 C CNN
	1    1100 4600
	1    0    0    -1  
$EndComp
Connection ~ 1100 4600
$Comp
L arp1:GND #PWR0102
U 1 1 5FBD3DDB
P 550 1850
F 0 "#PWR0102" H 550 1600 50  0001 C CNN
F 1 "GND" V 555 1722 50  0000 R CNN
F 2 "" H 550 1850 50  0001 C CNN
F 3 "" H 550 1850 50  0001 C CNN
	1    550  1850
	1    0    0    1   
$EndComp
Connection ~ 550  1850
$Comp
L arp1:R R1
U 1 1 5FBCA347
P 1100 3850
F 0 "R1" H 1168 3896 50  0000 L CNN
F 1 "10K" H 1168 3805 50  0000 L CNN
F 2 "Resistor_SMD:R_0603_1608Metric" V 1140 3840 50  0001 C CNN
F 3 "~" H 1100 3850 50  0001 C CNN
	1    1100 3850
	1    0    0    -1  
$EndComp
$Comp
L arp1:R R11
U 1 1 5FE5DB43
P 2550 2000
F 0 "R11" H 2618 2046 50  0000 L CNN
F 1 "10K" H 2618 1955 50  0000 L CNN
F 2 "Resistor_SMD:R_0603_1608Metric" V 2590 1990 50  0001 C CNN
F 3 "~" H 2550 2000 50  0001 C CNN
	1    2550 2000
	1    0    0    -1  
$EndComp
$Comp
L arp1:GND #PWR04
U 1 1 5FE667FE
P 2550 1850
F 0 "#PWR04" H 2550 1600 50  0001 C CNN
F 1 "GND" V 2555 1722 50  0000 R CNN
F 2 "" H 2550 1850 50  0001 C CNN
F 3 "" H 2550 1850 50  0001 C CNN
	1    2550 1850
	1    0    0    1   
$EndComp
$Comp
L arp1:C C1
U 1 1 5FBC17C6
P 700 1850
F 0 "C1" V 448 1850 50  0000 C CNN
F 1 "20pF" V 539 1850 50  0000 C CNN
F 2 "Capacitor_SMD:C_0603_1608Metric" H 738 1700 50  0001 C CNN
F 3 "~" H 700 1850 50  0001 C CNN
	1    700  1850
	0    1    1    0   
$EndComp
Wire Wire Line
	3400 1350 3600 1350
Wire Wire Line
	3600 1350 3600 1550
$Comp
L arp1:GND #PWR017
U 1 1 60101B2F
P 3600 1350
F 0 "#PWR017" H 3600 1100 50  0001 C CNN
F 1 "GND" V 3605 1222 50  0000 R CNN
F 2 "" H 3600 1350 50  0001 C CNN
F 3 "" H 3600 1350 50  0001 C CNN
	1    3600 1350
	0    -1   1    0   
$EndComp
Connection ~ 3600 1350
Wire Wire Line
	3100 1550 3100 1350
$Comp
L arp1:C C14
U 1 1 600E6EB3
P 3250 1350
F 0 "C14" V 2998 1350 50  0000 C CNN
F 1 "4.7uF" V 3089 1350 50  0000 C CNN
F 2 "Capacitor_SMD:C_0603_1608Metric" H 3288 1200 50  0001 C CNN
F 3 "~" H 3250 1350 50  0001 C CNN
	1    3250 1350
	0    1    1    0   
$EndComp
$Comp
L arp1:C C15
U 1 1 6013AE64
P 4750 3850
F 0 "C15" V 5000 3850 50  0000 C CNN
F 1 "0.1uF" V 4900 3850 50  0000 C CNN
F 2 "Capacitor_SMD:C_0603_1608Metric" H 4788 3700 50  0001 C CNN
F 3 "~" H 4750 3850 50  0001 C CNN
	1    4750 3850
	0    1    1    0   
$EndComp
Wire Wire Line
	4500 3650 4500 3850
Wire Wire Line
	4500 3850 4600 3850
$Comp
L arp1:GND #PWR018
U 1 1 6014BA0A
P 4500 3850
F 0 "#PWR018" H 4500 3600 50  0001 C CNN
F 1 "GND" V 4505 3722 50  0000 R CNN
F 2 "" H 4500 3850 50  0001 C CNN
F 3 "" H 4500 3850 50  0001 C CNN
	1    4500 3850
	-1   0    0    -1  
$EndComp
Connection ~ 4500 3850
Wire Wire Line
	5100 2050 5200 2050
Wire Wire Line
	5200 2050 5200 1750
Wire Wire Line
	5200 1750 5450 1750
$Comp
L arp1:C C16
U 1 1 60164803
P 5450 1900
F 0 "C16" V 5700 1900 50  0000 C CNN
F 1 "0.1uF" V 5600 1900 50  0000 C CNN
F 2 "Capacitor_SMD:C_0603_1608Metric" H 5488 1750 50  0001 C CNN
F 3 "~" H 5450 1900 50  0001 C CNN
	1    5450 1900
	1    0    0    -1  
$EndComp
Wire Wire Line
	5100 2150 5450 2150
Wire Wire Line
	5450 2150 5450 2050
$Comp
L arp1:GND #PWR021
U 1 1 60164812
P 5450 2150
F 0 "#PWR021" H 5450 1900 50  0001 C CNN
F 1 "GND" V 5455 2022 50  0000 R CNN
F 2 "" H 5450 2150 50  0001 C CNN
F 3 "" H 5450 2150 50  0001 C CNN
	1    5450 2150
	0    -1   1    0   
$EndComp
Wire Wire Line
	2600 2850 2600 3050
$Comp
L arp1:C C13
U 1 1 6018DD0A
P 2400 2900
F 0 "C13" V 2650 2900 50  0000 C CNN
F 1 "10nF" V 2550 2900 50  0000 C CNN
F 2 "Capacitor_SMD:C_0603_1608Metric" H 2438 2750 50  0001 C CNN
F 3 "~" H 2400 2900 50  0001 C CNN
	1    2400 2900
	-1   0    0    1   
$EndComp
$Comp
L arp1:GND #PWR014
U 1 1 6018DD19
P 2400 2750
F 0 "#PWR014" H 2400 2500 50  0001 C CNN
F 1 "GND" V 2405 2622 50  0000 R CNN
F 2 "" H 2400 2750 50  0001 C CNN
F 3 "" H 2400 2750 50  0001 C CNN
	1    2400 2750
	0    1    -1   0   
$EndComp
NoConn ~ 3700 1550
NoConn ~ 3800 1550
NoConn ~ 3900 1550
NoConn ~ 4200 1550
NoConn ~ 4300 1550
NoConn ~ 4400 1550
NoConn ~ 4500 1550
NoConn ~ 4400 3650
NoConn ~ 3900 3650
NoConn ~ 3800 3650
Text Label 4900 3850 0    50   ~ 0
3.3V
Text Label 2600 3050 2    50   ~ 0
3.3V
Text Label 3000 2050 2    50   ~ 0
3.3V
Text Label 5300 1750 0    50   ~ 0
3.3V
Text Label 3100 1350 2    50   ~ 0
3.3V
Text Label 5550 2800 2    50   ~ 0
5V
Text Label 1100 3700 0    50   ~ 0
3.3V
$Comp
L Connector:Conn_01x02_Male J5
U 1 1 5FD16334
P 5000 1150
F 0 "J5" H 5108 1331 50  0000 C CNN
F 1 "Conn_01x02_Male" H 5108 1240 50  0000 C CNN
F 2 "arp1:PinHeader_1x02_P2.54mm_Vertical_SMD_Pin1Left" H 5000 1150 50  0001 C CNN
F 3 "~" H 5000 1150 50  0001 C CNN
	1    5000 1150
	1    0    0    -1  
$EndComp
$Comp
L Connector:Barrel_Jack J1
U 1 1 5FE80F1A
P 850 7000
F 0 "J1" H 907 7325 50  0000 C CNN
F 1 "Barrel_Jack" H 907 7234 50  0000 C CNN
F 2 "Connector_BarrelJack:BarrelJack_CUI_PJ-063AH_Horizontal" H 900 6960 50  0001 C CNN
F 3 "~" H 900 6960 50  0001 C CNN
	1    850  7000
	1    0    0    -1  
$EndComp
Wire Wire Line
	1250 7100 1150 7100
Text Label 3500 4450 2    50   ~ 0
3.3V
$Comp
L arp1:GND #PWR02
U 1 1 5FEF373D
P 6650 1800
F 0 "#PWR02" H 6650 1550 50  0001 C CNN
F 1 "GND" V 6655 1672 50  0000 R CNN
F 2 "" H 6650 1800 50  0001 C CNN
F 3 "" H 6650 1800 50  0001 C CNN
	1    6650 1800
	-1   0    0    -1  
$EndComp
Text Label 6650 700  0    50   ~ 0
3.3V
NoConn ~ 8800 1500
NoConn ~ 8800 1400
Wire Wire Line
	8950 1200 8800 1200
$Comp
L arp1:GND #PWR012
U 1 1 5FD644E9
P 8950 1200
F 0 "#PWR012" H 8950 950 50  0001 C CNN
F 1 "GND" V 8955 1072 50  0000 R CNN
F 2 "" H 8950 1200 50  0001 C CNN
F 3 "" H 8950 1200 50  0001 C CNN
	1    8950 1200
	0    -1   1    0   
$EndComp
Wire Wire Line
	7050 1800 7250 1800
Connection ~ 7050 1800
Wire Wire Line
	7050 1700 7050 1800
Wire Wire Line
	7400 1400 7050 1400
$Comp
L arp1:R R4
U 1 1 5FDACD0E
P 7050 1550
F 0 "R4" H 6900 1600 50  0000 L CNN
F 1 "4.7K" H 6850 1500 50  0000 L CNN
F 2 "Resistor_SMD:R_0603_1608Metric" V 7090 1540 50  0001 C CNN
F 3 "~" H 7050 1550 50  0001 C CNN
	1    7050 1550
	-1   0    0    1   
$EndComp
$Comp
L arp1:GND #PWR0107
U 1 1 5FDAB576
P 8100 2200
F 0 "#PWR0107" H 8100 1950 50  0001 C CNN
F 1 "GND" V 8105 2072 50  0000 R CNN
F 2 "" H 8100 2200 50  0001 C CNN
F 3 "" H 8100 2200 50  0001 C CNN
	1    8100 2200
	-1   0    0    -1  
$EndComp
Wire Wire Line
	7250 1800 7400 1800
Connection ~ 7250 1800
Wire Wire Line
	7250 1700 7250 1800
Wire Wire Line
	7400 1700 7250 1700
Wire Wire Line
	9700 2100 9700 2250
Connection ~ 9700 2100
Wire Wire Line
	9700 2100 9450 2100
Wire Wire Line
	9700 1700 9700 2100
Wire Wire Line
	8800 2100 9150 2100
Wire Wire Line
	8800 1800 8800 2100
$Comp
L arp1:C C10
U 1 1 5FDA4759
P 9300 2100
F 0 "C10" V 9550 2100 50  0000 C CNN
F 1 "0.1uF" V 9450 2100 50  0000 C CNN
F 2 "Capacitor_SMD:C_0603_1608Metric" H 9338 1950 50  0001 C CNN
F 3 "~" H 9300 2100 50  0001 C CNN
	1    9300 2100
	0    1    1    0   
$EndComp
Connection ~ 9700 1700
Wire Wire Line
	9700 1250 9700 1700
Connection ~ 8200 700 
Wire Wire Line
	9700 700  8200 700 
Wire Wire Line
	9700 950  9700 700 
$Comp
L arp1:C C12
U 1 1 5FD9DC5A
P 9700 1100
F 0 "C12" V 9950 1100 50  0000 C CNN
F 1 "0.1uF" V 9850 1100 50  0000 C CNN
F 2 "Capacitor_SMD:C_0603_1608Metric" H 9738 950 50  0001 C CNN
F 3 "~" H 9700 1100 50  0001 C CNN
	1    9700 1100
	-1   0    0    1   
$EndComp
$Comp
L arp1:GND #PWR0106
U 1 1 5FD9CF0F
P 9700 2250
F 0 "#PWR0106" H 9700 2000 50  0001 C CNN
F 1 "GND" V 9705 2122 50  0000 R CNN
F 2 "" H 9700 2250 50  0001 C CNN
F 3 "" H 9700 2250 50  0001 C CNN
	1    9700 2250
	-1   0    0    -1  
$EndComp
Wire Wire Line
	9450 1700 9700 1700
Wire Wire Line
	8800 1700 9150 1700
$Comp
L arp1:C C9
U 1 1 5FD46289
P 9300 1700
F 0 "C9" V 9550 1700 50  0000 C CNN
F 1 "2.2nF" V 9450 1700 50  0000 C CNN
F 2 "Capacitor_SMD:C_0603_1608Metric" H 9338 1550 50  0001 C CNN
F 3 "~" H 9300 1700 50  0001 C CNN
	1    9300 1700
	0    1    1    0   
$EndComp
Wire Wire Line
	8200 700  8200 800 
Connection ~ 8000 700 
Wire Wire Line
	8000 700  8200 700 
Wire Wire Line
	7300 700  8000 700 
Connection ~ 7300 700 
Wire Wire Line
	8000 800  8000 700 
Wire Wire Line
	7100 1000 7100 1300
Wire Wire Line
	7300 1200 7300 1000
Wire Wire Line
	7100 700  7300 700 
Connection ~ 7100 700 
Wire Wire Line
	6650 700  7100 700 
Wire Wire Line
	7100 1300 7400 1300
$Comp
L arp1:R R5
U 1 1 5FD124BF
P 7100 850
F 0 "R5" H 6950 900 50  0000 L CNN
F 1 "4.7K" H 6900 800 50  0000 L CNN
F 2 "Resistor_SMD:R_0603_1608Metric" V 7140 840 50  0001 C CNN
F 3 "~" H 7100 850 50  0001 C CNN
	1    7100 850 
	1    0    0    -1  
$EndComp
Wire Wire Line
	7300 1200 7400 1200
Wire Wire Line
	6650 1800 7050 1800
$Comp
L arp1:R R6
U 1 1 5FD07D4E
P 7300 850
F 0 "R6" H 7368 896 50  0000 L CNN
F 1 "4.7K" H 7368 805 50  0000 L CNN
F 2 "Resistor_SMD:R_0603_1608Metric" V 7340 840 50  0001 C CNN
F 3 "~" H 7300 850 50  0001 C CNN
	1    7300 850 
	1    0    0    -1  
$EndComp
$Comp
L Sensor_Motion:MPU-6050 U7
U 1 1 5FBC7004
P 8100 1500
F 0 "U7" H 8100 1450 50  0000 C CNN
F 1 "MPU-6050" H 8100 1350 50  0000 C CNN
F 2 "arp1:InvenSense_QFN-24_4x4mm_P0.5mm" H 8100 700 50  0001 C CNN
F 3 "https://store.invensense.com/datasheets/invensense/MPU-6050_DataSheet_V3%204.pdf" H 8100 1350 50  0001 C CNN
	1    8100 1500
	1    0    0    -1  
$EndComp
Text Label 8800 3350 2    50   ~ 0
3.3V
Wire Wire Line
	9800 5400 9800 5300
Connection ~ 7600 4400
Wire Wire Line
	7600 4400 7600 4000
$Comp
L arp1:Conn_01x04_Male J4
U 1 1 5FF28D49
P 8600 5400
F 0 "J4" V 8500 5450 50  0000 R CNN
F 1 "Conn_01x04_Male" V 8400 5700 50  0000 R CNN
F 2 "arp1:PinHeader_1x04_P2.54mm_Vertical_SMD_Pin1Left" H 8600 5400 50  0001 C CNN
F 3 "~" H 8600 5400 50  0001 C CNN
	1    8600 5400
	0    -1   -1   0   
$EndComp
Wire Wire Line
	8800 3350 8700 3350
Connection ~ 9800 4500
Wire Wire Line
	9700 4500 9800 4500
Connection ~ 10200 4500
$Comp
L arp1:GND #PWR0111
U 1 1 5FE016C8
P 10200 4500
F 0 "#PWR0111" H 10200 4250 50  0001 C CNN
F 1 "GND" V 10205 4372 50  0000 R CNN
F 2 "" H 10200 4500 50  0001 C CNN
F 3 "" H 10200 4500 50  0001 C CNN
	1    10200 4500
	0    -1   1    0   
$EndComp
Wire Wire Line
	10200 5100 10100 5100
Wire Wire Line
	10200 4500 10200 5100
Wire Wire Line
	10100 4500 10200 4500
$Comp
L arp1:C C11
U 1 1 5FDFE047
P 9950 4500
F 0 "C11" V 9800 4500 50  0000 C CNN
F 1 "10uF" V 10100 4500 50  0000 C CNN
F 2 "Capacitor_SMD:C_0603_1608Metric" H 9988 4350 50  0001 C CNN
F 3 "~" H 9950 4500 50  0001 C CNN
	1    9950 4500
	0    -1   -1   0   
$EndComp
Wire Wire Line
	9800 4900 9800 4500
$Comp
L Transistor_FET:DMG2301L Q1
U 1 1 5FDF0005
P 9900 5100
F 0 "Q1" V 10242 5100 50  0000 C CNN
F 1 "DMG2301L" V 10151 5100 50  0000 C CNN
F 2 "Package_TO_SOT_SMD:SOT-23" H 10100 5025 50  0001 L CIN
F 3 "https://www.diodes.com/assets/Datasheets/DMG2301L.pdf" H 9900 5100 50  0001 L CNN
	1    9900 5100
	-1   0    0    1   
$EndComp
Wire Wire Line
	8700 3700 8700 3350
Wire Wire Line
	8800 3700 8800 3350
Wire Wire Line
	9000 3600 9000 3700
Wire Wire Line
	9650 3100 9600 3100
$Comp
L arp1:C C8
U 1 1 5FDDA7BB
P 9450 3100
F 0 "C8" V 9300 3100 50  0000 C CNN
F 1 "10uF" V 9600 3100 50  0000 C CNN
F 2 "Capacitor_SMD:C_0603_1608Metric" H 9488 2950 50  0001 C CNN
F 3 "~" H 9450 3100 50  0001 C CNN
	1    9450 3100
	0    1    1    0   
$EndComp
$Comp
L arp1:GND #PWR0110
U 1 1 5FDD9A3C
P 9300 3100
F 0 "#PWR0110" H 9300 2850 50  0001 C CNN
F 1 "GND" V 9305 2972 50  0000 R CNN
F 2 "" H 9300 3100 50  0001 C CNN
F 3 "" H 9300 3100 50  0001 C CNN
	1    9300 3100
	0    1    -1   0   
$EndComp
Wire Wire Line
	9600 4000 9650 4000
Wire Wire Line
	9700 4500 9700 4600
Connection ~ 9700 4500
Wire Wire Line
	9600 4500 9700 4500
Wire Wire Line
	9700 4600 9600 4600
Wire Wire Line
	9700 4400 9700 4500
Wire Wire Line
	9600 4400 9700 4400
Connection ~ 7600 4600
Wire Wire Line
	7500 4600 7600 4600
Wire Wire Line
	7600 4400 7600 4600
$Comp
L arp1:GND #PWR0108
U 1 1 5FDBD846
P 7500 4600
F 0 "#PWR0108" H 7500 4350 50  0001 C CNN
F 1 "GND" V 7505 4472 50  0000 R CNN
F 2 "" H 7500 4600 50  0001 C CNN
F 3 "" H 7500 4600 50  0001 C CNN
	1    7500 4600
	0    1    -1   0   
$EndComp
$Comp
L Driver_Motor:TB6612FNG U8
U 1 1 5FBCA661
P 8600 4300
F 0 "U8" V 8550 4300 50  0000 C CNN
F 1 "TB6612FNG" V 8650 4300 50  0000 C CNN
F 2 "arp1:SSOP-24_5.3x8.2mm_P0.65mm" H 9900 3400 50  0001 C CNN
F 3 "https://toshiba.semicon-storage.com/us/product/linear/motordriver/detail.TB6612FNG.html" H 9050 4900 50  0001 C CNN
	1    8600 4300
	0    1    1    0   
$EndComp
Wire Wire Line
	8700 4900 8700 5200
Wire Wire Line
	8800 5200 8800 5000
Wire Wire Line
	8800 5000 9000 5000
Wire Wire Line
	9000 5000 9000 4900
Wire Wire Line
	8700 4900 8800 4900
Wire Wire Line
	4900 3650 4600 3650
Wire Wire Line
	4900 3650 4900 3850
$Comp
L arp1:GND #PWR08
U 1 1 60005288
P 5550 3100
F 0 "#PWR08" H 5550 2850 50  0001 C CNN
F 1 "GND" V 5555 2972 50  0000 R CNN
F 2 "" H 5550 3100 50  0001 C CNN
F 3 "" H 5550 3100 50  0001 C CNN
	1    5550 3100
	0    1    -1   0   
$EndComp
Connection ~ 2400 2750
Wire Wire Line
	3500 1550 3100 1550
Wire Wire Line
	2550 2150 3000 2150
NoConn ~ 4000 3650
NoConn ~ 4100 3650
NoConn ~ 4200 3650
NoConn ~ 4300 3650
NoConn ~ 5100 2750
Wire Wire Line
	5100 2850 5250 2850
$Comp
L arp1:GND #PWR01
U 1 1 5FF9AB68
P 6050 4350
F 0 "#PWR01" H 6050 4100 50  0001 C CNN
F 1 "GND" V 6055 4222 50  0000 R CNN
F 2 "" H 6050 4350 50  0001 C CNN
F 3 "" H 6050 4350 50  0001 C CNN
	1    6050 4350
	-1   0    0    -1  
$EndComp
Text Label 6050 3650 0    50   ~ 0
5V
Wire Wire Line
	8500 4900 8500 5200
Wire Wire Line
	8600 5200 8600 5000
Wire Wire Line
	8600 5000 8300 5000
Wire Wire Line
	8300 5000 8300 4900
$Comp
L Mechanical:MountingHole H1
U 1 1 5FD6D1E9
P 10450 5750
F 0 "H1" H 10550 5796 50  0000 L CNN
F 1 "MountingHole" H 10550 5705 50  0000 L CNN
F 2 "MountingHole:MountingHole_5mm" H 10450 5750 50  0001 C CNN
F 3 "~" H 10450 5750 50  0001 C CNN
	1    10450 5750
	1    0    0    -1  
$EndComp
$Comp
L Mechanical:MountingHole H2
U 1 1 5FD6D6BD
P 10450 5950
F 0 "H2" H 10550 5996 50  0000 L CNN
F 1 "MountingHole" H 10550 5905 50  0000 L CNN
F 2 "MountingHole:MountingHole_5mm" H 10450 5950 50  0001 C CNN
F 3 "~" H 10450 5950 50  0001 C CNN
	1    10450 5950
	1    0    0    -1  
$EndComp
$Comp
L Mechanical:MountingHole H3
U 1 1 5FD6D8D5
P 10450 6150
F 0 "H3" H 10550 6196 50  0000 L CNN
F 1 "MountingHole" H 10550 6105 50  0000 L CNN
F 2 "MountingHole:MountingHole_5mm" H 10450 6150 50  0001 C CNN
F 3 "~" H 10450 6150 50  0001 C CNN
	1    10450 6150
	1    0    0    -1  
$EndComp
$Comp
L Mechanical:MountingHole H4
U 1 1 5FD6DA0F
P 10450 6350
F 0 "H4" H 10550 6396 50  0000 L CNN
F 1 "MountingHole" H 10550 6305 50  0000 L CNN
F 2 "MountingHole:MountingHole_5mm" H 10450 6350 50  0001 C CNN
F 3 "~" H 10450 6350 50  0001 C CNN
	1    10450 6350
	1    0    0    -1  
$EndComp
Text GLabel 4000 1550 1    50   Input ~ 0
SDA
Text GLabel 6900 1200 0    50   Input ~ 0
SDA
Wire Wire Line
	7300 1200 6900 1200
Connection ~ 7300 1200
Text GLabel 6900 1300 0    50   Input ~ 0
SCL
Wire Wire Line
	7100 1300 6900 1300
Connection ~ 7100 1300
Text GLabel 4100 1550 1    50   Input ~ 0
SCL
Text GLabel 5100 2350 2    50   Input ~ 0
BIN2
Text GLabel 5100 2450 2    50   Input ~ 0
BIN1
Text GLabel 5100 2550 2    50   Input ~ 0
AIN1
Text GLabel 5100 2650 2    50   Input ~ 0
AIN2
Text GLabel 8400 3700 1    50   Input ~ 0
AIN2
Text GLabel 8500 3700 1    50   Input ~ 0
AIN1
Text GLabel 8300 3700 1    50   Input ~ 0
BIN1
Text GLabel 8200 3700 1    50   Input ~ 0
BIN2
Text GLabel 3000 2650 0    50   Input ~ 0
NRST
Text GLabel 1500 4050 2    50   Input ~ 0
NRST
Wire Wire Line
	1500 4050 1100 4050
$Comp
L arp1:HC-SR04 U5
U 1 1 5FDA6706
P 2650 4250
F 0 "U5" V 2722 4480 50  0000 L CNN
F 1 "HC-SR04" V 2813 4480 50  0000 L CNN
F 2 "arp1:PinHeader_1x04_P2.54mm_Vertical_SMD_Pin1Left" H 2600 3750 50  0001 L BNN
F 3 "https://www.electroschematics.com/wp-content/uploads/2013/07/HCSR04-datasheet-version-1.pdf" H 2650 4250 50  0001 L BNN
F 4 "Osepp" H 2750 3650 50  0001 L BNN "MANUFACTURER"
	1    2650 4250
	0    1    1    0   
$EndComp
Text Label 2750 4050 0    50   ~ 0
5V
$Comp
L arp1:GND #PWR03
U 1 1 5FDAADD0
P 2450 4050
F 0 "#PWR03" H 2450 3800 50  0001 C CNN
F 1 "GND" V 2455 3922 50  0000 R CNN
F 2 "" H 2450 4050 50  0001 C CNN
F 3 "" H 2450 4050 50  0001 C CNN
	1    2450 4050
	0    1    -1   0   
$EndComp
Text GLabel 2550 4050 1    50   Input ~ 0
ECHO
Text GLabel 2650 4050 1    50   Input ~ 0
TRIG
Text GLabel 3000 3050 0    50   Input ~ 0
TRIG
Text GLabel 3000 2950 0    50   Input ~ 0
ECHO
Wire Wire Line
	2600 3050 2400 3050
Text GLabel 1650 2750 2    50   Input ~ 0
OSC_IN
Text GLabel 1650 3150 2    50   Input ~ 0
OSC_OUT
Wire Wire Line
	1650 2750 1550 2750
Connection ~ 1550 2750
Wire Wire Line
	1650 3150 1550 3150
Connection ~ 1550 3150
Text GLabel 3000 2550 0    50   Input ~ 0
OSC_OUT
Text GLabel 3000 2450 0    50   Input ~ 0
OSC_IN
Text GLabel 1250 1850 2    50   Input ~ 0
OSC32_IN
Text GLabel 1250 2350 2    50   Input ~ 0
OSC32_OUT
Wire Wire Line
	1250 1850 1150 1850
Connection ~ 1150 1850
Wire Wire Line
	1250 2350 1150 2350
Connection ~ 1150 2350
Text GLabel 3000 2250 0    50   Input ~ 0
OSC32_IN
Text GLabel 3000 2350 0    50   Input ~ 0
OSC32_OUT
Wire Wire Line
	2400 2750 3000 2750
Wire Wire Line
	2600 2850 3000 2850
Text GLabel 3000 3150 0    50   Input ~ 0
USART2_TX
Text GLabel 3500 3650 3    50   Input ~ 0
USART2_RX
Text GLabel 3800 4450 1    50   Input ~ 0
USART2_RX
Wire Wire Line
	3700 3650 3700 4450
Wire Wire Line
	3600 3650 3600 4450
Text GLabel 5200 1250 2    50   Input ~ 0
SWIO
Text GLabel 5200 1150 2    50   Input ~ 0
SWCLK
Text GLabel 5100 2250 2    50   Input ~ 0
SWIO
Text GLabel 4600 1550 1    50   Input ~ 0
SWCLK
$Comp
L arp1:HC-SR501 U9
U 1 1 5FEB12FE
P 5900 2950
F 0 "U9" H 6178 2996 50  0000 L CNN
F 1 "HC-SR501" H 6178 2905 50  0000 L CNN
F 2 "arp1:PinHeader_1x03_P2.54mm_Vertical_SMD_Pin1Left" H 5600 3200 50  0001 C CNN
F 3 "https://datasheetspdf.com/pdf-file/775434/ETC/HC-SR501/1" H 5600 3200 50  0001 C CNN
	1    5900 2950
	1    0    0    -1  
$EndComp
Wire Wire Line
	5550 2950 5100 2950
Wire Wire Line
	9000 3600 9350 3600
Wire Wire Line
	9650 4000 9650 3600
Wire Wire Line
	9650 3100 9650 3600
Connection ~ 9650 3600
$Comp
L arp1:R R7
U 1 1 5FDDE93B
P 9500 3600
F 0 "R7" H 9568 3646 50  0000 L CNN
F 1 "10K" H 9568 3555 50  0000 L CNN
F 2 "Resistor_SMD:R_0603_1608Metric" V 9540 3590 50  0001 C CNN
F 3 "~" H 9500 3600 50  0001 C CNN
	1    9500 3600
	0    1    1    0   
$EndComp
Text Label 9650 3100 0    50   ~ 0
3.3V
$Comp
L arp1:GND #PWR06
U 1 1 5FDA68A1
P 1250 7100
F 0 "#PWR06" H 1250 6850 50  0001 C CNN
F 1 "GND" H 1255 6927 50  0000 C CNN
F 2 "" H 1250 7100 50  0001 C CNN
F 3 "" H 1250 7100 50  0001 C CNN
	1    1250 7100
	1    0    0    -1  
$EndComp
$Comp
L arp1-rescue:LM2576HVS-5-Regulator_Switching U3
U 1 1 5FDABB9F
P 2350 7000
F 0 "U3" H 2350 7367 50  0000 C CNN
F 1 "LM2576HVS-5" H 2350 7276 50  0000 C CNN
F 2 "arp1:TO-263-5_TabPin3" H 2350 6750 50  0001 L CIN
F 3 "http://www.ti.com/lit/ds/symlink/lm2576.pdf" H 2350 7000 50  0001 C CNN
	1    2350 7000
	1    0    0    -1  
$EndComp
$Comp
L arp1:GND #PWR010
U 1 1 5FDACDC8
P 1850 7100
F 0 "#PWR010" H 1850 6850 50  0001 C CNN
F 1 "GND" H 1855 6927 50  0000 C CNN
F 2 "" H 1850 7100 50  0001 C CNN
F 3 "" H 1850 7100 50  0001 C CNN
	1    1850 7100
	1    0    0    -1  
$EndComp
Wire Wire Line
	1150 6900 1250 6900
$Comp
L Device:CP C7
U 1 1 5FDB68E1
P 1450 7050
F 0 "C7" H 1568 7096 50  0000 L CNN
F 1 "100uF" H 1568 7005 50  0000 L CNN
F 2 "Capacitor_SMD:C_0603_1608Metric" H 1488 6900 50  0001 C CNN
F 3 "~" H 1450 7050 50  0001 C CNN
	1    1450 7050
	1    0    0    -1  
$EndComp
Connection ~ 1450 6900
$Comp
L arp1:GND #PWR07
U 1 1 5FDB7B3E
P 1450 7200
F 0 "#PWR07" H 1450 6950 50  0001 C CNN
F 1 "GND" H 1455 7027 50  0000 C CNN
F 2 "" H 1450 7200 50  0001 C CNN
F 3 "" H 1450 7200 50  0001 C CNN
	1    1450 7200
	1    0    0    -1  
$EndComp
$Comp
L pspice:INDUCTOR L1
U 1 1 5FDB86E5
P 3350 7100
F 0 "L1" H 3350 6950 50  0000 C CNN
F 1 "0.1mH" H 3350 7050 50  0000 C CNN
F 2 "Inductor_SMD:L_Bourns_SRR1260" H 3350 7100 50  0001 C CNN
F 3 "~" H 3350 7100 50  0001 C CNN
	1    3350 7100
	1    0    0    -1  
$EndComp
Wire Wire Line
	2850 7100 2950 7100
Wire Wire Line
	3600 7100 3700 7100
Wire Wire Line
	3700 7100 3700 6900
$Comp
L Device:CP C18
U 1 1 5FDC5D85
P 3700 7250
F 0 "C18" H 3818 7296 50  0000 L CNN
F 1 "1000uF" H 3818 7205 50  0000 L CNN
F 2 "Capacitor_SMD:C_0603_1608Metric" H 3738 7100 50  0001 C CNN
F 3 "~" H 3700 7250 50  0001 C CNN
	1    3700 7250
	1    0    0    -1  
$EndComp
Connection ~ 3700 7100
$Comp
L arp1:GND #PWR019
U 1 1 5FDC6B77
P 3700 7400
F 0 "#PWR019" H 3700 7150 50  0001 C CNN
F 1 "GND" H 3705 7227 50  0000 C CNN
F 2 "" H 3700 7400 50  0001 C CNN
F 3 "" H 3700 7400 50  0001 C CNN
	1    3700 7400
	1    0    0    -1  
$EndComp
Wire Wire Line
	2950 7100 2950 7200
Connection ~ 2950 7100
Wire Wire Line
	2950 7100 3100 7100
$Comp
L Device:D_Schottky D1
U 1 1 5FDCBD16
P 2950 7350
F 0 "D1" V 2904 7430 50  0000 L CNN
F 1 "1N5822" V 2995 7430 50  0000 L CNN
F 2 "Diode_SMD:D_0603_1608Metric" H 2950 7350 50  0001 C CNN
F 3 "~" H 2950 7350 50  0001 C CNN
	1    2950 7350
	0    1    1    0   
$EndComp
$Comp
L arp1:GND #PWR016
U 1 1 5FDCD066
P 2950 7500
F 0 "#PWR016" H 2950 7250 50  0001 C CNN
F 1 "GND" H 2955 7327 50  0000 C CNN
F 2 "" H 2950 7500 50  0001 C CNN
F 3 "" H 2950 7500 50  0001 C CNN
	1    2950 7500
	1    0    0    -1  
$EndComp
Connection ~ 3700 6900
$Comp
L arp1:GND #PWR015
U 1 1 5FDD772E
P 2350 7300
F 0 "#PWR015" H 2350 7050 50  0001 C CNN
F 1 "GND" H 2355 7127 50  0000 C CNN
F 2 "" H 2350 7300 50  0001 C CNN
F 3 "" H 2350 7300 50  0001 C CNN
	1    2350 7300
	1    0    0    -1  
$EndComp
Text Label 3950 6900 0    50   ~ 0
5V
$Comp
L arp1:STM32F103C8T6 U1
U 1 1 5FBFE55C
P 4050 2600
F 0 "U1" H 4000 2500 50  0000 L CNN
F 1 "STM32F103C8T6" H 3750 2600 50  0000 L CNN
F 2 "arp1:LQFP-48_7x7mm_P0.5mm" H 3150 1400 50  0001 R CNN
F 3 "http://www.st.com/st-web-ui/static/active/en/resource/technical/document/datasheet/CD00161566.pdf" H 1800 0   50  0001 C CNN
	1    4050 2600
	1    0    0    -1  
$EndComp
Connection ~ 2850 6900
Wire Wire Line
	2850 6900 2750 6900
Wire Wire Line
	3700 6900 3950 6900
Wire Wire Line
	2850 6900 3700 6900
Wire Wire Line
	1450 6900 1850 6900
$Comp
L arp1:GND #PWR09
U 1 1 5FE32556
P 1650 6400
F 0 "#PWR09" H 1650 6150 50  0001 C CNN
F 1 "GND" H 1655 6227 50  0000 C CNN
F 2 "" H 1650 6400 50  0001 C CNN
F 3 "" H 1650 6400 50  0001 C CNN
	1    1650 6400
	1    0    0    -1  
$EndComp
Wire Wire Line
	2050 6100 2200 6100
Wire Wire Line
	1000 6100 850  6100
Connection ~ 1000 6100
$Comp
L Device:CP C6
U 1 1 5FE32B4B
P 1000 6250
F 0 "C6" H 1118 6296 50  0000 L CNN
F 1 "0.47uF" H 1118 6205 50  0000 L CNN
F 2 "Capacitor_SMD:C_0603_1608Metric" H 1038 6100 50  0001 C CNN
F 3 "~" H 1000 6250 50  0001 C CNN
	1    1000 6250
	1    0    0    -1  
$EndComp
Text Label 850  6100 2    50   ~ 0
5V
$Comp
L arp1:LM3940 U2
U 1 1 5FE1E973
P 1650 5900
F 0 "U2" H 1650 6015 50  0000 C CNN
F 1 "LM3940" H 1650 5924 50  0000 C CNN
F 2 "arp1:SOT-223" H 1650 5900 50  0001 C CNN
F 3 "https://www.ti.com/lit/ds/symlink/lm3940.pdf" H 1650 5900 50  0001 C CNN
	1    1650 5900
	1    0    0    -1  
$EndComp
Wire Wire Line
	1000 6100 1250 6100
$Comp
L arp1:GND #PWR05
U 1 1 5FE43523
P 1000 6400
F 0 "#PWR05" H 1000 6150 50  0001 C CNN
F 1 "GND" H 1005 6227 50  0000 C CNN
F 2 "" H 1000 6400 50  0001 C CNN
F 3 "" H 1000 6400 50  0001 C CNN
	1    1000 6400
	1    0    0    -1  
$EndComp
$Comp
L Device:CP C17
U 1 1 5FE440D0
P 2200 6250
F 0 "C17" H 2318 6296 50  0000 L CNN
F 1 "0.47uF" H 2318 6205 50  0000 L CNN
F 2 "Capacitor_SMD:C_0603_1608Metric" H 2238 6100 50  0001 C CNN
F 3 "~" H 2200 6250 50  0001 C CNN
	1    2200 6250
	1    0    0    -1  
$EndComp
Connection ~ 2200 6100
Wire Wire Line
	2200 6100 2550 6100
$Comp
L arp1:GND #PWR013
U 1 1 5FE4481A
P 2200 6400
F 0 "#PWR013" H 2200 6150 50  0001 C CNN
F 1 "GND" H 2205 6227 50  0000 C CNN
F 2 "" H 2200 6400 50  0001 C CNN
F 3 "" H 2200 6400 50  0001 C CNN
	1    2200 6400
	1    0    0    -1  
$EndComp
Wire Wire Line
	1650 6350 1650 6400
Text Label 2550 6100 0    50   ~ 0
3.3V
$Comp
L power:PWR_FLAG #FLG0101
U 1 1 5FE4BC50
P 1250 6900
F 0 "#FLG0101" H 1250 6975 50  0001 C CNN
F 1 "PWR_FLAG" H 1250 7073 50  0000 C CNN
F 2 "" H 1250 6900 50  0001 C CNN
F 3 "~" H 1250 6900 50  0001 C CNN
	1    1250 6900
	1    0    0    -1  
$EndComp
Connection ~ 1250 6900
Wire Wire Line
	1250 6900 1450 6900
$Comp
L power:PWR_FLAG #FLG0102
U 1 1 5FE550E0
P 1000 6100
F 0 "#FLG0102" H 1000 6175 50  0001 C CNN
F 1 "PWR_FLAG" H 1000 6273 50  0000 C CNN
F 2 "" H 1000 6100 50  0001 C CNN
F 3 "~" H 1000 6100 50  0001 C CNN
	1    1000 6100
	1    0    0    -1  
$EndComp
NoConn ~ 5100 3050
NoConn ~ 5100 3150
$Comp
L arp1:A3144 U4
U 1 1 5FDF740D
P 6250 4000
F 0 "U4" V 6204 3978 50  0000 L CNN
F 1 "A3144" V 6295 3978 50  0000 L CNN
F 2 "arp1:PinHeader_1x03_P2.54mm_Vertical_SMD_Pin1Left" H 6250 4000 50  0001 C CNN
F 3 "" H 6250 4000 50  0001 C CNN
	1    6250 4000
	0    1    1    0   
$EndComp
Wire Wire Line
	5750 4000 5250 4000
Wire Wire Line
	5250 4000 5250 3650
$Comp
L arp1:R R3
U 1 1 5FDC47E4
P 5700 3650
F 0 "R3" H 5768 3696 50  0000 L CNN
F 1 "10K" H 5768 3605 50  0000 L CNN
F 2 "Resistor_SMD:R_0603_1608Metric" V 5740 3640 50  0001 C CNN
F 3 "~" H 5700 3650 50  0001 C CNN
	1    5700 3650
	0    1    1    0   
$EndComp
Wire Wire Line
	6050 3650 5850 3650
Wire Wire Line
	5550 3650 5250 3650
Connection ~ 5250 3650
Wire Wire Line
	5250 3650 5250 2850
Connection ~ 5450 2150
NoConn ~ 3700 5750
NoConn ~ 3600 5750
Text GLabel 3500 5750 3    50   Input ~ 0
USART2_TX
$Comp
L arp1:ESP-01 U6
U 1 1 5FBA9A8C
P 3650 5100
F 0 "U6" H 3650 5517 50  0000 C CNN
F 1 "ESP-01" H 3650 5426 50  0000 C CNN
F 2 "arp1:PinSocket_2x04_P2.54mm_Vertical_SMD" H 3600 5100 50  0001 C CNN
F 3 "http://l0l.org.uk/2014/12/esp8266-modules-hardware-guide-gotta-catch-em-all/" H 3600 5100 50  0001 C CNN
	1    3650 5100
	0    1    1    0   
$EndComp
$Comp
L arp1:GND #PWR011
U 1 1 5FE873F8
P 3800 5750
F 0 "#PWR011" H 3800 5500 50  0001 C CNN
F 1 "GND" V 3805 5622 50  0000 R CNN
F 2 "" H 3800 5750 50  0001 C CNN
F 3 "" H 3800 5750 50  0001 C CNN
	1    3800 5750
	1    0    0    -1  
$EndComp
Text Label 1700 6900 0    50   ~ 0
Vin
Text Label 9800 5400 1    50   ~ 0
Vin
$Comp
L power:PWR_FLAG #FLG0103
U 1 1 5FDE3F9E
P 9800 4500
F 0 "#FLG0103" H 9800 4575 50  0001 C CNN
F 1 "PWR_FLAG" H 9800 4673 50  0000 C CNN
F 2 "" H 9800 4500 50  0001 C CNN
F 3 "~" H 9800 4500 50  0001 C CNN
	1    9800 4500
	1    0    0    -1  
$EndComp
$Comp
L arp1:GND #PWR?
U 1 1 5FDE595A
P 550 2750
F 0 "#PWR?" H 550 2500 50  0001 C CNN
F 1 "GND" V 555 2622 50  0000 R CNN
F 2 "" H 550 2750 50  0001 C CNN
F 3 "" H 550 2750 50  0001 C CNN
	1    550  2750
	1    0    0    1   
$EndComp
Connection ~ 550  2750
$EndSCHEMATC
